An introduction to the regressinator
…
nonlinear_data <- nonlinear_pop |>
  sample_x(n = 100) |>
  sample_y()

nonlinear_fit <- lm(y ~ x1 + x2, data = nonlinear_data)

# to see the kind of information we get from an augmented fit
augment(nonlinear_fit)
#> # A tibble: 100 × 9
#>         y    x1    x2 .fitted .resid   .hat .sigma   .cooksd .std.resid
#>     <dbl> <dbl> <dbl>   <dbl>  <dbl>  <dbl>  <dbl>     <dbl>      <dbl>
#>  1 42.4    6.81 3.92    40.7   1.65  0.0241   4.34 0.00123       0.387 
#>  2 27.8    4.71 0.689   26.6   1.21  0.0354   4.34 0.000989      0.284 
#>  3 26.3    5.28 2.77    28.9  -2.65  0.0183   4.33 0.00237      -0.618 
#>  4 24.8    5.27 6.35    24.5   0.264 0.0129   4.34 0.0000165     0.0614
#>  5 27.1    5.43 4.83    27.7  -0.632 0.0119   4.34 0.0000869    -0.147 
#>  6  0.523  2.99 7.87     3.03 -2.51  0.0246   4.34 0.00290      -0.588 
#>  7 57.2    7.63 0.556   51.9   5.28  0.0578   4.31 0.0324        1.26  
#>  8 31.9    6.30 3.01    37.5  -5.52  0.0227   4.31 0.0130       -1.29  
#>  9  7.37   3.20 4.49     8.91 -1.54  0.0160   4.34 0.000701     -0.360 
#> 10 42.2    7.61 9.37    41.0   1.22  0.0574   4.34 0.00173       0.292 
#> # ℹ 90 more rows
…
